Introduction to RexMS • RexMS
…
data("BRD4_apo")
BRD4_apo
#> # A tibble: 2,034 × 10
#> # Groups:   DeutTime, Sequence, State, Charge [678]
#>    DeutTime Charge State Exposure Start   End Sequence          Uptake replicate
#>    <chr>     <int> <chr>    <dbl> <int> <int> <chr>              <dbl>     <int>
#>  1 0s            3 BRD4         0     1    26 MSAESGPGTRLRNLPV…    0           1
#>  2 0s            3 BRD4         0     1    26 MSAESGPGTRLRNLPV…    0           2
#>  3 0s            3 BRD4         0     1    26 MSAESGPGTRLRNLPV…    0           3
#>  4 15.00s        3 BRD4        15     1    26 MSAESGPGTRLRNLPV…   20.8         1
#>  5 15.00s        3 BRD4        15     1    26 MSAESGPGTRLRNLPV…   20.7         2
#>  6 15.00s        3 BRD4        15     1    26 MSAESGPGTRLRNLPV…   20.4         3
#>  7 60.00s        3 BRD4        60     1    26 MSAESGPGTRLRNLPV…   20.8         1
#>  8 60.00s        3 BRD4        60     1    26 MSAESGPGTRLRNLPV…   20.8         2
#>  9 60.00s        3 BRD4        60     1    26 MSAESGPGTRLRNLPV…   20.4         3
#> 10 600.00s       3 BRD4       600     1    26 MSAESGPGTRLRNLPV…   19.0         1
#> # ℹ 2,024 more rows
#> # ℹ 1 more variable: MaxUptake <dbl>
…
